id;login;device;auth_token
1;Response Tasty Salad;Costa Rican Colon;mint green human-resource
2;Books Frozen;haptic systemic Investment Account;Up-sized systems
3;Springs;District;extend Pre-emptive front-end
4;Berkshire sticky Enterprise-wide;User-friendly yellow;Bike hard drive Drive
5;Berkshire Brand deposit;infomediaries Awesome Plastic Sausages;THX expedite Unbranded Cotton Pants
6;niches;Agent Bacon Manager;cutting-edge
7;Auto Loan Account;Plastic whiteboard;archive
8;violet Bulgaria Rand Namibia Dollar;Officer Concrete matrix;payment partnerships
9;payment;Shoes;multimedia SQL
10;installation transmitting;functionalities 1080p PCI;Specialist Chief relationships
