{
    "fluentMethods": true,
    "clientRootFolder": "",
    "relationships": [
        {
            "relationshipName": "stateMaster",
            "otherEntityName": "stateMaster",
            "relationshipType": "many-to-one",
            "otherEntityField": "id"
        },
        {
            "relationshipName": "districtMaster",
            "otherEntityName": "districtMaster",
            "relationshipType": "many-to-one",
            "otherEntityField": "id"
        }
    ],
    "fields": [
        {
            "fieldName": "blockCode",
            "fieldType": "String"
        },
        {
            "fieldName": "blockName",
            "fieldType": "String",
            "fieldValidateRules": [
                "required"
            ]
        },
        {
            "fieldName": "createdOn",
            "fieldType": "LocalDate"
        },
        {
            "fieldName": "lastUpdatedBy",
            "fieldType": "String"
        },
        {
            "fieldName": "lastUpdatedOn",
            "fieldType": "LocalDate"
        },
        {
            "fieldName": "verifiedBy",
            "fieldType": "String"
        },
        {
            "fieldName": "verifiedOn",
            "fieldType": "LocalDate"
        },
        {
            "fieldName": "remarks",
            "fieldType": "String"
        }
    ],
    "changelogDate": "20191121055606",
    "dto": "mapstruct",
    "searchEngine": "elasticsearch",
    "service": "serviceImpl",
    "entityTableName": "block_master",
    "databaseType": "sql",
    "jpaMetamodelFiltering": false,
    "pagination": "pagination"
}
