{
    "fluentMethods": true,
    "clientRootFolder": "",
    "relationships": [],
    "fields": [
        {
            "fieldName": "departmentName",
            "fieldType": "String"
        },
        {
            "fieldName": "createdOn",
            "fieldType": "LocalDate"
        },
        {
            "fieldName": "createdBy",
            "fieldType": "String"
        },
        {
            "fieldName": "updatedOn",
            "fieldType": "LocalDate"
        },
        {
            "fieldName": "updatedBy",
            "fieldType": "String"
        },
        {
            "fieldName": "status",
            "fieldType": "String"
        },
        {
            "fieldName": "remark",
            "fieldType": "String"
        },
        {
            "fieldName": "whiteListIp1",
            "fieldType": "String"
        },
        {
            "fieldName": "whiteListIp2",
            "fieldType": "String"
        }
    ],
    "changelogDate": "20200124112919",
    "dto": "mapstruct",
    "searchEngine": "elasticsearch",
    "service": "serviceImpl",
    "entityTableName": "department",
    "databaseType": "sql",
    "jpaMetamodelFiltering": true,
    "pagination": "pagination",
    "readOnly": false
}
