{
    "fluentMethods": true,
    "clientRootFolder": "",
    "relationships": [
        {
            "relationshipName": "designationMaster",
            "otherEntityName": "designationMaster",
            "relationshipType": "many-to-one",
            "otherEntityField": "id",
            "otherEntityRelationshipName": "userDetails"
        },
        {
            "relationshipName": "organisationMaster",
            "otherEntityName": "organisationMaster",
            "relationshipType": "many-to-one",
            "otherEntityField": "id",
            "otherEntityRelationshipName": "userDetails"
        },
        {
            "relationshipName": "esignRole",
            "otherEntityName": "esignRole",
            "relationshipType": "many-to-one",
            "otherEntityField": "id",
            "otherEntityRelationshipName": "userDetails"
        },
        {
            "relationshipName": "applicationMaster",
            "otherEntityName": "applicationMaster",
            "relationshipType": "many-to-one",
            "otherEntityField": "id",
            "otherEntityRelationshipName": "userDetails"
        }
    ],
    "fields": [
        {
            "fieldName": "userFullName",
            "fieldType": "String"
        },
        {
            "fieldName": "userPhoneMobile",
            "fieldType": "String",
            "fieldValidateRules": [
                "required"
            ]
        },
        {
            "fieldName": "userPhoneLandline",
            "fieldType": "String"
        },
        {
            "fieldName": "userOfficialEmail",
            "fieldType": "String",
            "fieldValidateRules": [
                "required"
            ]
        },
        {
            "fieldName": "userAlternativeEmail",
            "fieldType": "String"
        },
        {
            "fieldName": "userLoginPassword",
            "fieldType": "String"
        },
        {
            "fieldName": "userLoginPasswordSalt",
            "fieldType": "String"
        },
        {
            "fieldName": "userTransactionPassword",
            "fieldType": "String"
        },
        {
            "fieldName": "userTransactionPasswordSalt",
            "fieldType": "String"
        },
        {
            "fieldName": "createdBy",
            "fieldType": "String"
        },
        {
            "fieldName": "createdOn",
            "fieldType": "LocalDate"
        },
        {
            "fieldName": "lastUpdatedBy",
            "fieldType": "String"
        },
        {
            "fieldName": "lastUpdatedOn",
            "fieldType": "LocalDate"
        },
        {
            "fieldName": "verifiedBy",
            "fieldType": "String"
        },
        {
            "fieldName": "verifiedOn",
            "fieldType": "LocalDate"
        },
        {
            "fieldName": "remarks",
            "fieldType": "String"
        },
        {
            "fieldName": "userIdCode",
            "fieldType": "String",
            "fieldValidateRules": [
                "unique"
            ]
        },
        {
            "fieldName": "status",
            "fieldType": "String"
        },
        {
            "fieldName": "username",
            "fieldType": "String"
        },
        {
            "fieldName": "userPIN",
            "fieldType": "String"
        },
        {
            "fieldName": "organisationUnit",
            "fieldType": "String"
        },
        {
            "fieldName": "address",
            "fieldType": "String"
        },
        {
            "fieldName": "counrty",
            "fieldType": "String"
        },
        {
            "fieldName": "postalCode",
            "fieldType": "String"
        },
        {
            "fieldName": "photograph",
            "fieldType": "String"
        },
        {
            "fieldName": "dob",
            "fieldType": "LocalDate"
        },
        {
            "fieldName": "gender",
            "fieldType": "String"
        },
        {
            "fieldName": "pan",
            "fieldType": "String"
        },
        {
            "fieldName": "aadhaar",
            "fieldType": "String"
        },
        {
            "fieldName": "panAttachment",
            "fieldType": "String"
        },
        {
            "fieldName": "employeeId",
            "fieldType": "String"
        },
        {
            "fieldName": "employeeCardAttachment",
            "fieldType": "String"
        },
        {
            "fieldName": "signerId",
            "fieldType": "String"
        },
        {
            "fieldName": "lastAction",
            "fieldType": "String"
        },
        {
            "fieldName": "accountStatus",
            "fieldType": "String"
        }
    ],
    "changelogDate": "20191121074700",
    "dto": "mapstruct",
    "searchEngine": "elasticsearch",
    "service": "serviceImpl",
    "entityTableName": "user_details",
    "databaseType": "sql",
    "jpaMetamodelFiltering": false,
    "pagination": "pagination",
    "readOnly": false
}
