com/hartron/esignharyana/domain/OtpTest.class
com/hartron/esignharyana/repository/search/OrganisationLogSearchRepositoryMockConfiguration.class
com/hartron/esignharyana/service/mapper/OtpMapperTest.class
com/hartron/esignharyana/service/dto/UserApplicationDTOTest.class
com/hartron/esignharyana/repository/search/DepartmentSearchRepositoryMockConfiguration.class
com/hartron/esignharyana/service/AuditEventServiceIT.class
com/hartron/esignharyana/config/WebConfigurerTestController.class
com/hartron/esignharyana/web/rest/EsignErrorResourceIT.class
com/hartron/esignharyana/repository/search/OrganisationAttachmentSearchRepositoryMockConfiguration.class
com/hartron/esignharyana/service/dto/DepartmentDTOTest.class
com/hartron/esignharyana/web/rest/UserLogsResourceIT.class
com/hartron/esignharyana/service/mapper/UserAuthDetailsMapperTest.class
com/hartron/esignharyana/web/rest/errors/ExceptionTranslatorTestController$TestResponseStatusException.class
com/hartron/esignharyana/web/rest/UserDetailsResourceIT.class
com/hartron/esignharyana/service/dto/ApplicationMasterDTOTest.class
com/hartron/esignharyana/service/dto/UserDetailsDTOTest.class
com/hartron/esignharyana/repository/search/ApplicationLogsSearchRepositoryMockConfiguration.class
com/hartron/esignharyana/repository/search/OtpSearchRepositoryMockConfiguration.class
com/hartron/esignharyana/repository/search/ExternalUserEsignRequestSearchRepositoryMockConfiguration.class
com/hartron/esignharyana/repository/search/UserLogsSearchRepositoryMockConfiguration.class
com/hartron/esignharyana/service/dto/OrganisationDocumentDTOTest.class
com/hartron/esignharyana/service/dto/OrganisationLogDTOTest.class
com/hartron/esignharyana/service/mapper/OrganisationTypeMasterMapperTest.class
com/hartron/esignharyana/repository/search/DesignationMasterSearchRepositoryMockConfiguration.class
com/hartron/esignharyana/repository/timezone/DateTimeWrapperRepository.class
com/hartron/esignharyana/service/dto/UserLogsDTOTest.class
com/hartron/esignharyana/service/mapper/UserDetailsMapperTest.class
com/hartron/esignharyana/web/rest/OrganisationDocumentResourceIT.class
com/hartron/esignharyana/domain/OrganisationAttachmentTest.class
com/hartron/esignharyana/service/mapper/EsignErrorMapperTest.class
com/hartron/esignharyana/service/dto/EsignTransationDTOTest.class
com/hartron/esignharyana/repository/search/UserApplicationSearchRepositoryMockConfiguration.class
com/hartron/esignharyana/web/rest/BlockMasterResourceIT.class
com/hartron/esignharyana/web/rest/TestUtil.class
com/hartron/esignharyana/domain/BlockMasterTest.class
com/hartron/esignharyana/service/mapper/UserLogsMapperTest.class
com/hartron/esignharyana/service/mapper/OrganisationAttachmentMapperTest.class
com/hartron/esignharyana/service/UserServiceIT.class
com/hartron/esignharyana/service/dto/DistrictMasterDTOTest.class
com/hartron/esignharyana/domain/OrganisationDocumentTest.class
com/hartron/esignharyana/service/mapper/EsignTransationMapperTest.class
com/hartron/esignharyana/repository/search/DistrictMasterSearchRepositoryMockConfiguration.class
com/hartron/esignharyana/domain/EsignTransationTest.class
com/hartron/esignharyana/security/jwt/TokenProviderTest.class
com/hartron/esignharyana/repository/search/ApplicationMasterSearchRepositoryMockConfiguration.class
com/hartron/esignharyana/repository/search/UserAuthDetailsSearchRepositoryMockConfiguration.class
com/hartron/esignharyana/web/rest/DesignationMasterResourceIT.class
com/hartron/esignharyana/domain/ApplicationLogsTest.class
com/hartron/esignharyana/web/rest/SubDistrictMasterResourceIT.class
com/hartron/esignharyana/service/dto/ApplicationLogsDTOTest.class
com/hartron/esignharyana/service/mapper/ExternalUserEsignRequestMapperTest.class
com/hartron/esignharyana/ArchTest.class
com/hartron/esignharyana/service/mapper/StateMasterMapperTest.class
com/hartron/esignharyana/domain/OrganisationTypeMasterTest.class
com/hartron/esignharyana/web/rest/AuditResourceIT.class
com/hartron/esignharyana/domain/ExternalUserEsignRequestTest.class
com/hartron/esignharyana/service/mapper/SubDistrictMasterMapperTest.class
com/hartron/esignharyana/web/rest/UserResourceIT.class
com/hartron/esignharyana/domain/UserApplicationTest.class
com/hartron/esignharyana/repository/timezone/DateTimeWrapper.class
com/hartron/esignharyana/repository/search/UserDetailsSearchRepositoryMockConfiguration.class
com/hartron/esignharyana/domain/EsignRoleTest.class
com/hartron/esignharyana/repository/search/BlockMasterSearchRepositoryMockConfiguration.class
com/hartron/esignharyana/cucumber/stepdefs/UserStepDefs.class
com/hartron/esignharyana/domain/UserAuthDetailsTest.class
com/hartron/esignharyana/web/rest/AccountResourceIT.class
com/hartron/esignharyana/service/mapper/OrganisationLogMapperTest.class
com/hartron/esignharyana/web/rest/ApplicationLogsResourceIT.class
com/hartron/esignharyana/service/MailServiceIT.class
com/hartron/esignharyana/service/dto/OtpDTOTest.class
com/hartron/esignharyana/service/dto/EsignRoleDTOTest.class
com/hartron/esignharyana/service/mapper/ApplicationMasterMapperTest.class
com/hartron/esignharyana/web/rest/errors/ExceptionTranslatorTestController.class
com/hartron/esignharyana/repository/search/EsignRoleSearchRepositoryMockConfiguration.class
com/hartron/esignharyana/web/rest/EsignTransationResourceIT.class
com/hartron/esignharyana/web/rest/OtpResourceIT.class
com/hartron/esignharyana/service/mapper/ApplicationLogsMapperTest.class
com/hartron/esignharyana/web/rest/OrganisationLogResourceIT.class
com/hartron/esignharyana/service/dto/UserAuthDetailsDTOTest.class
com/hartron/esignharyana/security/DomainUserDetailsServiceIT.class
com/hartron/esignharyana/domain/UserDetailsTest.class
com/hartron/esignharyana/web/rest/errors/ExceptionTranslatorTestController$TestDTO.class
com/hartron/esignharyana/service/dto/ExternalUserEsignRequestDTOTest.class
com/hartron/esignharyana/domain/DistrictMasterTest.class
com/hartron/esignharyana/web/rest/ApplicationMasterResourceIT.class
com/hartron/esignharyana/service/mapper/OrganisationDocumentMapperTest.class
com/hartron/esignharyana/repository/search/EsignTransationSearchRepositoryMockConfiguration.class
com/hartron/esignharyana/security/jwt/JWTFilterTest.class
com/hartron/esignharyana/service/dto/DesignationMasterDTOTest.class
com/hartron/esignharyana/domain/EsignErrorTest.class
com/hartron/esignharyana/web/rest/DistrictMasterResourceIT.class
com/hartron/esignharyana/domain/StateMasterTest.class
com/hartron/esignharyana/web/rest/StateMasterResourceIT.class
com/hartron/esignharyana/repository/CustomAuditEventRepositoryIT.class
com/hartron/esignharyana/web/rest/errors/ExceptionTranslatorIT.class
com/hartron/esignharyana/web/rest/TestUtil$ZonedDateTimeMatcher.class
com/hartron/esignharyana/security/SecurityUtilsUnitTest.class
com/hartron/esignharyana/service/mapper/DistrictMasterMapperTest.class
com/hartron/esignharyana/service/mapper/UserApplicationMapperTest.class
com/hartron/esignharyana/web/rest/OrganisationAttachmentResourceIT.class
com/hartron/esignharyana/service/dto/OrganisationAttachmentDTOTest.class
com/hartron/esignharyana/service/dto/StateMasterDTOTest.class
com/hartron/esignharyana/service/mapper/DesignationMasterMapperTest.class
com/hartron/esignharyana/repository/search/EsignErrorSearchRepositoryMockConfiguration.class
com/hartron/esignharyana/service/dto/OrganisationTypeMasterDTOTest.class
com/hartron/esignharyana/domain/ApplicationMasterTest.class
com/hartron/esignharyana/service/mapper/OrganisationMasterMapperTest.class
com/hartron/esignharyana/repository/search/OrganisationDocumentSearchRepositoryMockConfiguration.class
com/hartron/esignharyana/domain/OrganisationLogTest.class
com/hartron/esignharyana/repository/search/SubDistrictMasterSearchRepositoryMockConfiguration.class
com/hartron/esignharyana/web/rest/OrganisationTypeMasterResourceIT.class
com/hartron/esignharyana/web/rest/OrganisationMasterResourceIT.class
com/hartron/esignharyana/repository/search/StateMasterSearchRepositoryMockConfiguration.class
com/hartron/esignharyana/repository/search/OrganisationMasterSearchRepositoryMockConfiguration.class
com/hartron/esignharyana/web/rest/ExternalUserEsignRequestResourceIT.class
com/hartron/esignharyana/service/dto/OrganisationMasterDTOTest.class
com/hartron/esignharyana/web/rest/EsignRoleResourceIT.class
com/hartron/esignharyana/web/rest/UserJWTControllerIT.class
com/hartron/esignharyana/repository/search/OrganisationTypeMasterSearchRepositoryMockConfiguration.class
com/hartron/esignharyana/web/rest/UserApplicationResourceIT.class
com/hartron/esignharyana/service/dto/EsignErrorDTOTest.class
com/hartron/esignharyana/cucumber/CucumberIT.class
com/hartron/esignharyana/config/WebConfigurerTest.class
com/hartron/esignharyana/cucumber/stepdefs/StepDefs.class
com/hartron/esignharyana/web/rest/DepartmentResourceIT.class
com/hartron/esignharyana/service/mapper/BlockMasterMapperTest.class
com/hartron/esignharyana/domain/UserLogsTest.class
com/hartron/esignharyana/domain/SubDistrictMasterTest.class
com/hartron/esignharyana/domain/DepartmentTest.class
com/hartron/esignharyana/cucumber/CucumberContextConfiguration.class
com/hartron/esignharyana/domain/DesignationMasterTest.class
com/hartron/esignharyana/repository/timezone/DateTimeWrapper_.class
com/hartron/esignharyana/config/timezone/HibernateTimeZoneIT.class
com/hartron/esignharyana/domain/OrganisationMasterTest.class
com/hartron/esignharyana/repository/search/UserSearchRepositoryMockConfiguration.class
com/hartron/esignharyana/service/mapper/DepartmentMapperTest.class
com/hartron/esignharyana/service/mapper/EsignRoleMapperTest.class
com/hartron/esignharyana/service/dto/SubDistrictMasterDTOTest.class
com/hartron/esignharyana/service/dto/BlockMasterDTOTest.class
